%YAML 1.1
%TAG !u! tag:unity3d.com,2011:
--- !u!181963792 &2655988077585873504
Preset:
  m_ObjectHideFlags: 0
  m_PrefabParentObject: {fileID: 0}
  m_PrefabInternal: {fileID: 0}
  m_Name: PigCamera
  m_TargetType:
    m_NativeTypeID: 114
    m_ManagedTypePPtr: {fileID: 11500000, guid: 319d2fe34a804e245819465c9505ea59,
      type: 3}
    m_ManagedTypeFallback: 
  m_Properties:
  - target: {fileID: 0}
    propertyPath: m_Enabled
    value: 1
    objectReference: {fileID: 0}
  - target: {fileID: 0}
    propertyPath: m_EditorHideFlags
    value: 0
    objectReference: {fileID: 0}
  - target: {fileID: 0}
    propertyPath: m_Name
    value: 
    objectReference: {fileID: 0}
  - target: {fileID: 0}
    propertyPath: m_EditorClassIdentifier
    value: 
    objectReference: {fileID: 0}
  - target: {fileID: 0}
    propertyPath: m_ExcludedPropertiesInInspector.Array.size
    value: 1
    objectReference: {fileID: 0}
  - target: {fileID: 0}
    propertyPath: m_ExcludedPropertiesInInspector.Array.data[0]
    value: m_Script
    objectReference: {fileID: 0}
  - target: {fileID: 0}
    propertyPath: m_LockStageInInspector.Array.size
    value: 0
    objectReference: {fileID: 0}
  - target: {fileID: 0}
    propertyPath: m_StreamingVersion
    value: 20170927
    objectReference: {fileID: 0}
  - target: {fileID: 0}
    propertyPath: m_Priority
    value: 10
    objectReference: {fileID: 0}
  - target: {fileID: 0}
    propertyPath: m_LookAt
    value: 
    objectReference: {fileID: 0}
  - target: {fileID: 0}
    propertyPath: m_Follow
    value: 
    objectReference: {fileID: 0}
  - target: {fileID: 0}
    propertyPath: m_PositionBlending
    value: 0
    objectReference: {fileID: 0}
  - target: {fileID: 0}
    propertyPath: m_CommonLens
    value: 1
    objectReference: {fileID: 0}
  - target: {fileID: 0}
    propertyPath: m_Lens.FieldOfView
    value: 40
    objectReference: {fileID: 0}
  - target: {fileID: 0}
    propertyPath: m_Lens.OrthographicSize
    value: 10
    objectReference: {fileID: 0}
  - target: {fileID: 0}
    propertyPath: m_Lens.NearClipPlane
    value: 0.1
    objectReference: {fileID: 0}
  - target: {fileID: 0}
    propertyPath: m_Lens.FarClipPlane
    value: 5000
    objectReference: {fileID: 0}
  - target: {fileID: 0}
    propertyPath: m_Lens.Dutch
    value: 0
    objectReference: {fileID: 0}
  - target: {fileID: 0}
    propertyPath: m_YAxis.Value
    value: 1
    objectReference: {fileID: 0}
  - target: {fileID: 0}
    propertyPath: m_YAxis.m_MaxSpeed
    value: 0.5
    objectReference: {fileID: 0}
  - target: {fileID: 0}
    propertyPath: m_YAxis.m_AccelTime
    value: 10
    objectReference: {fileID: 0}
  - target: {fileID: 0}
    propertyPath: m_YAxis.m_DecelTime
    value: 0.1
    objectReference: {fileID: 0}
  - target: {fileID: 0}
    propertyPath: m_YAxis.m_InputAxisName
    value: Mouse Y
    objectReference: {fileID: 0}
  - target: {fileID: 0}
    propertyPath: m_YAxis.m_InputAxisValue
    value: 0
    objectReference: {fileID: 0}
  - target: {fileID: 0}
    propertyPath: m_YAxis.m_InvertInput
    value: 0
    objectReference: {fileID: 0}
  - target: {fileID: 0}
    propertyPath: m_YAxis.m_MinValue
    value: 0
    objectReference: {fileID: 0}
  - target: {fileID: 0}
    propertyPath: m_YAxis.m_MaxValue
    value: 1
    objectReference: {fileID: 0}
  - target: {fileID: 0}
    propertyPath: m_YAxis.m_Wrap
    value: 0
    objectReference: {fileID: 0}
  - target: {fileID: 0}
    propertyPath: m_YAxisRecentering.m_enabled
    value: 0
    objectReference: {fileID: 0}
  - target: {fileID: 0}
    propertyPath: m_YAxisRecentering.m_WaitTime
    value: 1
    objectReference: {fileID: 0}
  - target: {fileID: 0}
    propertyPath: m_YAxisRecentering.m_RecenteringTime
    value: 2
    objectReference: {fileID: 0}
  - target: {fileID: 0}
    propertyPath: m_YAxisRecentering.m_LegacyHeadingDefinition
    value: -1
    objectReference: {fileID: 0}
  - target: {fileID: 0}
    propertyPath: m_YAxisRecentering.m_LegacyVelocityFilterStrength
    value: -1
    objectReference: {fileID: 0}
  - target: {fileID: 0}
    propertyPath: m_XAxis.Value
    value: 0
    objectReference: {fileID: 0}
  - target: {fileID: 0}
    propertyPath: m_XAxis.m_MaxSpeed
    value: 200
    objectReference: {fileID: 0}
  - target: {fileID: 0}
    propertyPath: m_XAxis.m_AccelTime
    value: 0.5
    objectReference: {fileID: 0}
  - target: {fileID: 0}
    propertyPath: m_XAxis.m_DecelTime
    value: 0.1
    objectReference: {fileID: 0}
  - target: {fileID: 0}
    propertyPath: m_XAxis.m_InputAxisName
    value: Mouse X
    objectReference: {fileID: 0}
  - target: {fileID: 0}
    propertyPath: m_XAxis.m_InputAxisValue
    value: 0
    objectReference: {fileID: 0}
  - target: {fileID: 0}
    propertyPath: m_XAxis.m_InvertInput
    value: 0
    objectReference: {fileID: 0}
  - target: {fileID: 0}
    propertyPath: m_XAxis.m_MinValue
    value: -180
    objectReference: {fileID: 0}
  - target: {fileID: 0}
    propertyPath: m_XAxis.m_MaxValue
    value: 180
    objectReference: {fileID: 0}
  - target: {fileID: 0}
    propertyPath: m_XAxis.m_Wrap
    value: 1
    objectReference: {fileID: 0}
  - target: {fileID: 0}
    propertyPath: m_Heading.m_Definition
    value: 2
    objectReference: {fileID: 0}
  - target: {fileID: 0}
    propertyPath: m_Heading.m_VelocityFilterStrength
    value: 4
    objectReference: {fileID: 0}
  - target: {fileID: 0}
    propertyPath: m_Heading.m_Bias
    value: 0
    objectReference: {fileID: 0}
  - target: {fileID: 0}
    propertyPath: m_RecenterToTargetHeading.m_enabled
    value: 0
    objectReference: {fileID: 0}
  - target: {fileID: 0}
    propertyPath: m_RecenterToTargetHeading.m_WaitTime
    value: 1
    objectReference: {fileID: 0}
  - target: {fileID: 0}
    propertyPath: m_RecenterToTargetHeading.m_RecenteringTime
    value: 2
    objectReference: {fileID: 0}
  - target: {fileID: 0}
    propertyPath: m_RecenterToTargetHeading.m_LegacyHeadingDefinition
    value: -1
    objectReference: {fileID: 0}
  - target: {fileID: 0}
    propertyPath: m_RecenterToTargetHeading.m_LegacyVelocityFilterStrength
    value: -1
    objectReference: {fileID: 0}
  - target: {fileID: 0}
    propertyPath: m_BindingMode
    value: 5
    objectReference: {fileID: 0}
  - target: {fileID: 0}
    propertyPath: m_SplineCurvature
    value: 0.2
    objectReference: {fileID: 0}
  - target: {fileID: 0}
    propertyPath: m_Orbits.Array.size
    value: 3
    objectReference: {fileID: 0}
  - target: {fileID: 0}
    propertyPath: m_Orbits.Array.data[0].m_Height
    value: 2.81
    objectReference: {fileID: 0}
  - target: {fileID: 0}
    propertyPath: m_Orbits.Array.data[0].m_Radius
    value: 5
    objectReference: {fileID: 0}
  - target: {fileID: 0}
    propertyPath: m_Orbits.Array.data[1].m_Height
    value: 0.98
    objectReference: {fileID: 0}
  - target: {fileID: 0}
    propertyPath: m_Orbits.Array.data[1].m_Radius
    value: 5.5
    objectReference: {fileID: 0}
  - target: {fileID: 0}
    propertyPath: m_Orbits.Array.data[2].m_Height
    value: -1
    objectReference: {fileID: 0}
  - target: {fileID: 0}
    propertyPath: m_Orbits.Array.data[2].m_Radius
    value: 5
    objectReference: {fileID: 0}
  - target: {fileID: 0}
    propertyPath: m_LegacyHeadingBias
    value: 3.4028235e+38
    objectReference: {fileID: 0}
  - target: {fileID: 0}
    propertyPath: m_Rigs.Array.size
    value: 3
    objectReference: {fileID: 0}
  - target: {fileID: 0}
    propertyPath: m_Rigs.Array.data[0]
    value: 
    objectReference: {fileID: 0}
  - target: {fileID: 0}
    propertyPath: m_Rigs.Array.data[1]
    value: 
    objectReference: {fileID: 0}
  - target: {fileID: 0}
    propertyPath: m_Rigs.Array.data[2]
    value: 
    objectReference: {fileID: 0}
